{
    "string-array":
    {
        "item":
        ["Albania ALL Lek",
         "Afghanistan AFN ؋",
         "Argentina ARS $",
         "Aruba AWG ƒ",
         "Australia AUD $",
         "Azerbaijan AZN ₼",
         "Bahamas BSD $",
         "Barbados BBD $",
         "Belarus BYR p.",
         "Belize BZD BZ$",
         "Bermuda BMD $",
         "Bolivia BOB $b",
         "BosniaandHerzegovina BAM KM",
         "Botswana BWP P",
         "Bulgaria BGN лв",
         "Brazil BRL R$",
         "Brunei BND $",
         "Cambodia KHR ៛",
         "Canada CAD $",
         "Cayman KYD $",
         "Chile CLP $","China CNY ¥","Colombia COP $",
                         "Costa Rica CRC ₡","Croatia HRK kn","Cuba CUP ₱",
                         "CzechRepublic CZK Kč","Denmark DKK kr","DominicanRepublic DOP RD$","EastCaribbean XCD $","Egypt EGP £","ElSalvador SVC $","Estonia EEK kr","EuroMember EUR €","FalklandIslands FKP £","Fiji FJD $","Georgia GEL ₾","Ghana GHC ¢","Gibraltar GIP £","Guatemala GTQ Q","Guernsey GGP £","Guyana GYD $","Honduras HNL L","HongKong HKD $","Hungary HUF Ft","Iceland ISK kr","India INR ₹","Indonesia IDR Rp","Iran IRR ﷼","IsleofMan IMP £","Israel ILS ₪","Jamaica JMD J$","Japan JPY ¥","Jersey JEP £","Kazakhstan KZT лв","Korea(North) KPW ₩","Korea(South) KRW ₩","Kyrgyzstan KGS лв","Laos LAK ₭","Latvia LVL Ls","Lebanon LBP £","Liberia LRD $","Lithuania     LTL Lt","Macedonia MKD ден","Malaysia MYR RM","Mauritius MUR ₨","Mexico MXN $","Mongolia MNT ₮","Mozambique MZN MT","Namibia NAD $","Nepal NPR ₨","Netherlands ANG ƒ","NewZealand NZD $","Nicaragua NIO C$","Nigeria NGN ₦","Norway NOK kr","Oman OMR ﷼","Pakistan PKR ₨","Panama PAB B/.","Paraguay PYG Gs","Peru PEN S/.","Philippines PHP ₱","Poland PLN zł","Qatar QAR ﷼","Romania RON lei","Russia RUB ₽","SaintHelena SHP £","SaudiArabia SAR ﷼","Serbia RSD Дин.","Seychelles SCR ₨","Singapore SGD $","SolomonIslands SBD $","Somalia SOS S","SouthAfrica ZAR S","SriLanka LKR ₨","Sweden SEK kr","Switzerland CHF CHF","Suriname SRD $","Syria SYP £","Taiwan TWD NT$","Thailand THB ฿","TrinidadandTobago TTD TT$","Turkey TRL ₺","Tuvalu TVD $","Ukraine UAH ₴","UnitedKingdom    GBP £","UnitedStates USD $","Uruguay UYU $U","Uzbekistan UZS лв","Venezuela VEF Bs","VietNam VND ₫","Yemen YER ﷼","Zimbabwe ZWD Z$"]
        
        ,"_name":"CurrencyCode"}

}
